0000000000000000000000000000000000000000000000000000000000000000
0000000000000000000000000000000000000000000000000000000000000000
0000000000000000000000000000000000000000000000000000000000000000
0000000000000000000000000000000000000000000000000000000000000000
0000000000000000000000000000000000000000000000000000000000000000
0000000000000000000000000000000000000000000000000000000000000000
0000000001000010010000000000111111100000000000000000000000000000
0000000001000010010000100000100000010000000000000000000000000000
0000000001000010010000100000100000001000000000000000000000000000
0000000001111110010000100000100000001001011110000000000000000000
0000000001000010011111111000100000001001100001000000000000000000
0000000001000010000000100000100000001001000001000000000000000000
0000000001000010000000100000100000010001000001000000000000000000
0000000001000010000000100000111111100001000001000000000000000000
0000000000000000000000000000000000000000000000000000000000000000
0000000000000000000000000000000000000000000000000000000000000000
0000000000000000000000000000000000000000000000000000000000000000
0000000000000000000000000000000000000000000000000000000000000000
0000000000000000000000000000000000000000000000000000000000000000
0000000000000000000000000000000000000000000000000000000000000000
0000000000000000000000000000000000000000000000000000000000000000
0000000000000000000000000000000000000000000000000000000000000000